…
# return
genos
```

```
## # A tibble: 152,004 × 25
##    donor_id chr       pos ref   alt   gene  strand ref_cod mut_cod ref3_cod mut3_cod aachange ntchange codonsub impact pid   type  cell_id total_depth
##    <chr>    <chr>   <dbl> <chr> <chr> <chr>  <dbl> <chr>   <chr>   <chr>    <chr>    <chr>    <chr>    <chr>    <chr>  <chr> <chr> <chr>         <dbl>
##  1 PD63118  1     2488095 GCCT… G     TNFR…      1 .       .       .        .        .        1-10-de… .        no-SNV ENSP… del   plate1…          72
##  2 PD63118  1     2488095 GCCT… G     TNFR…      1 .       .       .        .        .        1-10-de… .        no-SNV ENSP… del   plate1…         115
##  3 PD63118  1     2488095 GCCT… G     TNFR…      1 .       .       .        .        .        1-10-de… .        no-SNV ENSP… del   plate1…          96
##  4 PD63118  1     2488095 GCCT… G     TNFR…      1 .       .       .        .        .        1-10-de… .        no-SNV ENSP… del   plate1…          84
##  5 PD63118  1     2488095 GCCT… G     TNFR…      1 .       .       .        .        .        1-10-de… .        no-SNV ENSP… del   plate1…         114
##  6 PD63118  1     2488095 GCCT… G     TNFR…      1 .       .       .        .        .        1-10-de… .        no-SNV ENSP… del   plate1…         129
##  7 PD63118  1     2488095 GCCT… G     TNFR…      1 .       .       .        .        .        1-10-de… .        no-SNV ENSP… del   plate1…          36
##  8 PD63118  1     2488095 GCCT… G     TNFR…      1 .       .       .        .        .        1-10-de… .        no-SNV ENSP… del   plate1…          87
##  9 PD63118  1     2488095 GCCT… G     TNFR…      1 .       .       .        .        .        1-10-de… .        no-SNV ENSP… del   plate1…          74
## 10 PD63118  1     2488095 GCCT… G     TNFR…      1 .       .       .        .        .        1-10-de… .        no-SNV ENSP… del   plate1…         102
## # ℹ 151,994 more rows
## # ℹ 6 more variables: ref_depth <dbl>, mut_depth <dbl>, mut_vaf <dbl>, on_1p <lgl>, celltype_VDJ_SHM_CSR <fct>, loh_1p <chr>
```

We filter to `mut_vaf` > 0.25 and `mut_depth` > 1.


``` r
genos_filter <-
  genos %>%
  filter(mut_vaf > 0.2, mut_depth > 1)

# return
genos_filter
```

```
## # A tibble: 129 × 25
##    donor_id chr       pos ref   alt   gene  strand ref_cod mut_cod ref3_cod mut3_cod aachange ntchange codonsub impact pid   type  cell_id total_depth
##    <chr>    <chr>   <dbl> <chr> <chr> <chr>  <dbl> <chr>   <chr>   <chr>    <chr>    <chr>    <chr>    <chr>    <chr>  <chr> <chr> <chr>         <dbl>
##  1 PD63118  1     2488105 T     A     TNFR…      1 T       A       ATG      AAG      M1K      T2A      ATG>AAG  Misse… ENSP… snv   plate1…         131
##  2 PD63118  1     2488106 G     T     TNFR…      1 G       T       TGG      TTG      M1I      G3T      ATG>ATT  Misse… ENSP… snv   plate3…         147
##  3 PD63118  1     2488138 G     A     TNFR…      1 G       A       TGG      TAG      W12*     G35A     TGG>TAG  Nonse… ENSP… snv   plate1…         157
##  4 PD63118  1     2488138 G     A     TNFR…      1 G       A       TGG      TAG      W12*     G35A     TGG>TAG  Nonse… ENSP… snv   plate3…         109
##  5 PD63118  1     2488138 G     A     TNFR…      1 G       A       TGG      TAG      W12*     G35A     TGG>TAG  Nonse… ENSP… snv   plate3…          30
##  6 PD63118  1     2488138 G     A     TNFR…      1 G       A       TGG      TAG      W12*     G35A     TGG>TAG  Nonse… ENSP… snv   plate3…         134
##  7 PD63118  1     2488139 G     A     TNFR…      1 G       A       GGA      GAA      W12*     G36A     TGG>TGA  Nonse… ENSP… snv   plate1…          87
##  8 PD63118  1     2488139 G     A     TNFR…      1 G       A       GGA      GAA      W12*     G36A     TGG>TGA  Nonse… ENSP… snv   plate1…          94
##  9 PD63118  1     2489164 G     A     TNFR…      1 G       A       AGG      AAG      .        .        .        Essen… ENSP… snv   plate1…          31
## 10 PD63118  1     2489171 T     G     TNFR…      1 T       G       GTA      GGA      Y26D     T76G     TAT>GAT  Misse… ENSP… snv   plate1…          40
## # ℹ 119 more rows
## # ℹ 6 more variables: ref_depth <dbl>, mut_depth <dbl>, mut_vaf <dbl>, on_1p <lgl>, celltype_VDJ_SHM_CSR <fct>, loh_1p <chr>
```
…
# return
bj_muts
```

```
## # A tibble: 65,516 × 55
##    chr    pos_37     pos ref   mut   mut_id     cell_id seq_type mut_depth total_depth mut_vaf gene  strand ref_cod mut_cod ref3_cod mut3_cod aachange
##    <chr>   <int>   <int> <chr> <chr> <chr>      <chr>   <chr>        <int>       <int>   <dbl> <chr>  <dbl> <chr>   <chr>   <chr>    <chr>    <chr>   
##  1 chr1  1517661 1517661 G     A     chr1_1517… plate3… dna+dna…        19          33 0.576   <NA>      NA <NA>    <NA>    <NA>     <NA>     <NA>    
##  2 chr1  1761291 1761291 C     T     chr1_1761… plate3… dna+dna…         9          21 0.429   <NA>      NA <NA>    <NA>    <NA>     <NA>     <NA>    
##  3 chr1  1801468 1801468 A     AT    chr1_1801… plate3… dna+dna…         4           7 0.571   <NA>      NA <NA>    <NA>    <NA>     <NA>     <NA>    
##  4 chr1  2488094 2488094 A     C     chr1_2488… plate3… dna+dna…        53         114 0.465   <NA>      NA <NA>    <NA>    <NA>     <NA>     <NA>    
##  5 chr1  2488105 2488105 T     A     chr1_2488… plate1… dnahyb         151         151 1       TNFR…      1 T       A       ATG      AAG      M1K     
##  6 chr1  2488105 2488105 T     A     chr1_2488… plate1… dnahyb           1         100 0.01    TNFR…      1 T       A       ATG      AAG      M1K     
##  7 chr1  2488106 2488106 G     T     chr1_2488… plate3… dna+dna…        63         147 0.429   TNFR…      1 G       T       TGG      TTG      M1I     
##  8 chr1  2488138 2488138 G     A     chr1_2488… plate1… dnahyb           1         103 0.00971 TNFR…      1 G       A       TGG      TAG      W12*    
##  9 chr1  2488138 2488138 G     A     chr1_2488… plate1… dnahyb           2         191 0.0105  TNFR…      1 G       A       TGG      TAG      W12*    
## 10 chr1  2488138 2488138 G     A     chr1_2488… plate1… dnahyb          71         191 0.372   TNFR…      1 G       A       TGG      TAG      W12*    
## # ℹ 65,506 more rows
## # ℹ 37 more variables: ntchange <chr>, codonsub <chr>, impact <chr>, pid <chr>, n_cells <dbl>, plex <chr>, plate <dbl>, DNA_PrePCR_conc <dbl>,
## #   RNA_PrePCR_conc <dbl>, suspected_doublet <lgl>, doublet_rationale <chr>, celltype_bj_expression <chr>, celltype_SHM <chr>,
## #   celltype_VDJ_recomb <chr>, class_switch_recombination_CSR <chr>, chr_dropout <lgl>, loh_1p <chr>, TNFRSF14_mut <chr>, TNFRSF14_mut_VAF <dbl>,
## #   TNFRSF14_mut_in_NanoSeq_data <chr>, productive_heavy_chain <chr>, productive_heavy_chain_VDJ_consensus_sequences <chr>,
## #   productive_heavy_chain_CDR3_nt_IgBLAST <chr>, productive_heavy_chain_CDR3_nt_length <dbl>, productive_heavy_chain_CDR3_aa_IgBLAST <chr>,
## #   productive_heavy_chain_CDR3_aa_length <dbl>, unproductive_heavy_chain <chr>, unproductive_heavy_chain_VDJ_consensus_sequences <chr>, …
```
…
