…
We filter to `mut_vaf` > 0.25 and `mut_depth` > 1.


``` r
genos_filter <-
  genos %>%
  filter(mut_vaf > 0.2, mut_depth > 1)

# return
genos_filter
```

```
## # A tibble: 158 × 40
##    donor_id chr       pos ref       alt   gene  strand ref_cod mut_cod ref3_cod mut3_cod aachange ntchange codonsub impact pid   total_depth ref_depth
##    <chr>    <chr>   <dbl> <chr>     <chr> <chr>  <dbl> <chr>   <chr>   <chr>    <chr>    <chr>    <chr>    <chr>    <chr>  <chr>       <dbl>     <dbl>
##  1 PD63118  1     2488098 TGAGGCAT… T     TNFR…      1 .       .       .        .        .        1-8-del… .        no-SNV ENSP…          18        11
##  2 PD63118  1     2488105 T         A     TNFR…      1 T       A       ATG      AAG      M1K      T2A      ATG>AAG  Misse… ENSP…         131         0
##  3 PD63118  1     2488106 G         T     TNFR…      1 G       T       TGG      TTG      M1I      G3T      ATG>ATT  Misse… ENSP…         137        78
##  4 PD63118  1     2488138 G         A     TNFR…      1 G       A       TGG      TAG      W12*     G35A     TGG>TAG  Nonse… ENSP…         104        59
##  5 PD63118  1     2488138 G         A     TNFR…      1 G       A       TGG      TAG      W12*     G35A     TGG>TAG  Nonse… ENSP…          28         3
##  6 PD63118  1     2488138 G         A     TNFR…      1 G       A       TGG      TAG      W12*     G35A     TGG>TAG  Nonse… ENSP…         124        48
##  7 PD63118  1     2488138 G         A     TNFR…      1 G       A       TGG      TAG      W12*     G35A     TGG>TAG  Nonse… ENSP…         157        98
##  8 PD63118  1     2488139 G         A     TNFR…      1 G       A       GGA      GAA      W12*     G36A     TGG>TGA  Nonse… ENSP…          87        51
##  9 PD63118  1     2488139 G         A     TNFR…      1 G       A       GGA      GAA      W12*     G36A     TGG>TGA  Nonse… ENSP…         122        70
## 10 PD63118  1     2488139 G         A     TNFR…      1 G       A       GGA      GAA      W12*     G36A     TGG>TGA  Nonse… ENSP…          94        24
## # ℹ 148 more rows
## # ℹ 22 more variables: mut_depth <dbl>, mut_vaf <dbl>, type <chr>, id <chr>, cell_id <chr>, plate <dbl>, well <chr>, seq_type <chr>, run_id <dbl>,
## #   lane <chr>, plex_n <dbl>, study_id <dbl>, sanger_sample_id <chr>, supplier_sample_name <chr>, manifest_file <chr>, bam <chr>, mutations <chr>,
## #   snps <chr>, loh_1p <chr>, celltype_SHM <chr>, celltype_VDJ_recomb <chr>, TNFRSF14_mut <chr>
```
…
