…
``` r
clone_vafs <-
  vafs %>%
  dplyr::group_by(chr, pos, ref, alt) %>%
  dplyr::mutate(cell_ids = paste(sort(unique(cell_id)), collapse = ",")) %>%
  dplyr::filter(cell_ids == "plate3_wellD4,plate3_wellE11") %>%
  dplyr::ungroup()
clone_vafs %>%
  dplyr::count(chr)
```

```
## # A tibble: 23 × 2
##    chr       n
##    <chr> <int>
##  1 chr1     16
##  2 chr10    34
##  3 chr11    44
##  4 chr12    18
##  5 chr13    10
##  6 chr14    18
##  7 chr15     8
##  8 chr16    18
##  9 chr17    12
## 10 chr18     4
## # ℹ 13 more rows
```
…
